Team,Points,OpPoints,Wins,Losses,Ties,Rating
ARI,8.07638e+06,7.56189e+06,163289,138754,7957,101.66
ATL,8.07331e+06,8.05614e+06,150651,149981,9368,100.055
BAL,8.22514e+06,6.68429e+06,189780,109684,10536,104.97
BUF,9.04416e+06,7.25145e+06,194005,107321,8674,105.783
CAR,7.7539e+06,7.81664e+06,148531,151789,9680,99.7976
CHI,7.29025e+06,7.63731e+06,142132,158504,9364,98.8805
CIN,7.21075e+06,8.21887e+06,125665,175577,8758,96.748
CLE,7.83078e+06,8.28363e+06,138173,161172,10655,98.5392
DAL,7.65211e+06,8.24543e+06,135233,164881,9886,98.0861
DEN,6.94446e+06,8.31142e+06,116401,184577,9022,95.5904
DET,7.63819e+06,8.9264e+06,116680,183379,9941,95.8445
GB,8.86615e+06,7.39459e+06,186820,113008,10172,104.747
HOU,7.7322e+06,8.62859e+06,126891,173151,9958,97.1084
IND,8.49162e+06,7.52706e+06,172956,126721,10323,103.111
JAX,7.09258e+06,8.75022e+06,108151,192829,9020,94.6527
KC,9.32294e+06,7.66113e+06,191921,108563,9516,105.361
LA,7.58623e+06,6.53415e+06,179337,120794,9869,103.394
LAC,7.48736e+06,8.27008e+06,130148,170153,9699,97.4751
LV,8.22668e+06,9.20496e+06,126375,173037,10588,96.8443
MIA,8.32534e+06,7.80444e+06,162959,137434,9607,101.68
MIN,7.85216e+06,8.53857e+06,133571,166501,9928,97.7858
NE,7.54237e+06,7.58145e+06,148063,151485,10452,99.8739
NO,8.17389e+06,7.45827e+06,168395,132655,8950,102.308
NYG,7.20569e+06,7.71051e+06,137892,162644,9464,98.3715
NYJ,6.4157e+06,8.14897e+06,106835,194712,8453,94.4088
PHI,7.03394e+06,7.96792e+06,127644,173468,8888,96.9872
PIT,7.99596e+06,7.07137e+06,173842,126321,9837,102.983
SEA,8.36379e+06,7.35215e+06,176964,123658,9378,103.263
SF,7.32428e+06,7.78423e+06,138550,161896,9554,98.5163
TB,8.65147e+06,7.27855e+06,184233,117505,8262,104.429
TEN,8.44924e+06,7.91342e+06,164169,136530,9301,101.728
WAS,7.00222e+06,7.30711e+06,141541,159113,9346,99.0165
